…
str(cases)
## 'data.frame': 62334 obs. of  35 variables:
## $ FECHA_ACTUALIZACION: Factor w/ 1 level "2020-04-24": 1 1 1 1 1 1 1 1 1 1 ...
## $ ID_REGISTRO        : Factor w/ 62334 levels "000024","000038",..: 20185 60983 30572 2458 18503 54130 62056 53871 57504 39143 ...
## $ ORIGEN             : int  2 2 2 1 1 1 2 2 2 1 ...
## $ SECTOR             : int  9 12 9 3 12 12 4 12 12 4 ...
## $ ENTIDAD_UM         : int  15 9 28 15 15 9 9 9 9 2 ...
##...

descriptions <- datosmx::get_covid_descriptions()
all <- datosmx::complete_covid_cases(cases, descriptions)

all %>% as_tibble()
# A tibble: 62,334 x 62
#   FECHA_ACTUALIZA… ID_REGISTRO ORIGEN SECTOR ENTIDAD_UM  SEXO ENTIDAD_NAC ENTIDAD_RES MUNICIPIO_RES TIPO_PACIENTE
#   <fct>            <fct>        <int>  <int>      <int> <int>       <int>       <int>         <int>         <int>
# 1 2020-04-24       09e8dc           2      9         15     1          15          15            37             2
# 2 2020-04-24       1dd782           2     12          9     1          15           9             3             1
# 3 2020-04-24       0efbaf           2      9         28     2          16          28            32             1
# 4 2020-04-24       013a6c           1      3         15     2          15          15           106             1
# 5 2020-04-24       091a48           1     12         15     2          15          15            31             2
# 6 2020-04-24       1a72fe           1     12          9     1           9           9            11             1
# 7 2020-04-24       1e6142           2      4          9     1           9           9             3             2
# 8 2020-04-24       1a5595           2     12          9     2           9           9             8             1
# 9 2020-04-24       1c21d8           2     12          9     1          15           9             9             1
#10 2020-04-24       13236c           1      4          2     2          21           2             4             2
## … with 62,324 more rows, and 52 more variables: FECHA_INGRESO <fct>, FECHA_SINTOMAS <fct>, FECHA_DEF <fct>,
##   INTUBADO <int>, NEUMONIA <int>, EDAD <int>, NACIONALIDAD <int>, EMBARAZO <int>, HABLA_LENGUA_INDIG <int>,
##   DIABETES <int>, EPOC <int>, ASMA <int>, INMUSUPR <int>, HIPERTENSION <int>, OTRA_COM <int>, CARDIOVASCULAR <int>,
##   OBESIDAD <int>, RENAL_CRONICA <int>, TABAQUISMO <int>, OTRO_CASO <int>, RESULTADO <int>, MIGRANTE <int>,
##   PAIS_NACIONALIDAD <fct>, PAIS_ORIGEN <fct>, UCI <int>, ORIGEN_FACTOR <fct>, SECTOR_FACTOR <fct>,
##   ENTIDAD_UM_FACTOR <fct>, SEXO_FACTOR <fct>, ENTIDAD_NAC_FACTOR <fct>, ENTIDAD_RES_FACTOR <fct>,
##   MUNICIPIO_RES_FACTOR <fct>, TIPO_PACIENTE_FACTOR <fct>, INTUBADO_FACTOR <fct>, NEUMONIA_FACTOR <fct>,
##   EMBARAZO_FACTOR <fct>, HABLA_LENGUA_INDIG_FACTOR <fct>, DIABETES_FACTOR <fct>, EPOC_FACTOR <fct>, ASMA_FACTOR <fct>,
##   INMUSUPR_FACTOR <fct>, HIPERTENSION_FACTOR <fct>, OTRA_COM_FACTOR <fct>, CARDIOVASCULAR_FACTOR <fct>,
…
# If you want historical data...
cases <- datosmx::get_covid_cases(date="2020-04-12")
## trying URL 'https://datos.covid19in.mx/abiertos/todos/202004/20200412.zip'
## Content type 'application/zip' length 735960 bytes (718 KB)
## ==================================================
## downloaded 718 KB
```

#### Time Series (going to change soon to include city!)
```r

library(dplyr)
datosmx::get_covid_timeseries() %>% as_tibble()
## # A tibble: 1,856 x 20
## Fecha Estado Positivos Positivos_Delta Sospechosos Sospechosos_Del… Negativos Negativos_Delta
## <chr> <chr>      <int>           <int>       <int>            <int>     <int>           <int>
## 1 2020… AGU            0               0          NA                0        NA               0
## 2 2020… BCN            0               0          NA                0        NA               0
## 3 2020… BCS            0               0          NA                0        NA               0
## 4 2020… CAM            0               0          NA                0        NA               0
## 5 2020… CHH            0               0          NA                0        NA               0
## 6 2020… CHP            0               0          NA                0        NA               0
## 7 2020… CMX            1               0          NA                0        NA               0
## 8 2020… COA            0               0          NA                0        NA               0
## 9 2020… COL            0               0          NA                0        NA               0
## 10 2020… DUR            0               0          NA                0        NA               0
# … with 1,846 more rows, and 12 more variables: Defunciones_Positivos <int>,
#   Defunciones_Positivos_Delta <int>, Defunciones_Sospechosos <int>,
#   Defunciones_Sospechosos_Delta <int>, Defunciones_Negativos <int>,
#   Defunciones_Negativos_Delta <int>, Positivos_Sintomas_14_Dias <int>,
#   Sospechosos_Sintomas_14_Dias <int>, Negativos_Sintomas_14_Dias <int>,
#   Positivos_Sintomas_7_Dias <int>, Sospechosos_Sintomas_7_Dias <int>,
#   Negativos_Sintomas_7_Dias <int>
```
…
